﻿hora_acc,terreno,condic_meteor,dia_semana_acc,estado_super,Año,Trimestre,Mes,Día
0,Montañoso,Lluvia,Domingo,Humeda,2018,Trim. 3,julio,1
0,Montañoso,Lluvia,Jueves,Humeda,2018,Trim. 3,julio,12
0,Montañoso,Lluvia,Sábado,Humeda,2018,Trim. 3,julio,7
0,Montañoso,Lluvia,Sábado,Humeda,2018,Trim. 3,agosto,18
0,Montañoso,Normal,Lunes,Seca y limpia,2018,Trim. 3,julio,9
0,Montañoso,Normal,Lunes,Seca y limpia,2018,Trim. 3,julio,30
0,Montañoso,Normal,Martes,Seca y limpia,2018,Trim. 3,julio,17
0,Montañoso,Normal,Martes,Seca y limpia,2018,Trim. 3,agosto,21
0,Montañoso,Normal,Martes,Seca y limpia,2018,Trim. 3,septiembre,18
0,Montañoso,Normal,Miércoles,Seca y limpia,2018,Trim. 3,julio,18
0,Montañoso,Normal,Miércoles,Seca y limpia,2018,Trim. 3,agosto,15
0,Montañoso,Normal,Sábado,Seca y limpia,2018,Trim. 3,agosto,11
0,Montañoso,Normal,Sábado,Seca y limpia,2018,Trim. 3,agosto,18
0,Montañoso,Viento,viernes,Seca y limpia,2018,Trim. 3,agosto,10
0,Ondulado,Lluvia,Domingo,Humeda,2018,Trim. 3,agosto,5
0,Ondulado,Normal,Jueves,Seca y limpia,2018,Trim. 3,agosto,23
0,Plano,Lluvia,Lunes,Humeda,2018,Trim. 3,agosto,13
0,Plano,Lluvia,Miércoles,Humeda,2018,Trim. 2,mayo,23
0,Plano,Lluvia,Sábado,Humeda,2018,Trim. 3,agosto,4
0,Plano,Lluvia,Sábado,Humeda,2018,Trim. 3,septiembre,1
0,Plano,Normal,Domingo,Seca y limpia,2018,Trim. 3,julio,1
0,Plano,Normal,Martes,Seca y limpia,2018,Trim. 3,julio,3
0,Plano,Normal,Miércoles,Seca y limpia,1969,Trim. 4,diciembre,31
0,Plano,Normal,Miércoles,Seca y limpia,2018,Trim. 3,agosto,15
0,Plano,Normal,Sábado,Seca y limpia,2018,Trim. 2,junio,30
0,Plano,Seca,Lunes,Seca y limpia,2018,Trim. 2,mayo,7
0,Plano,Seca,Martes,Seca y limpia,2018,Trim. 2,mayo,1
0,Plano,Seca,Martes,Seca y limpia,2018,Trim. 2,junio,12
0,Plano,Seca,Miércoles,Seca y limpia,2018,Trim. 2,mayo,2
0,Plano,Seca,Sábado,Seca y limpia,2018,Trim. 2,mayo,12
0,Plano,Sol,Sábado,Seca y limpia,2018,Trim. 3,julio,14
1,Montañoso,Lluvia,Lunes,Humeda,2018,Trim. 3,agosto,13
1,Montañoso,Lluvia,Miércoles,Humeda,2018,Trim. 3,agosto,15
1,Montañoso,Normal,Martes,Seca y limpia,2018,Trim. 3,julio,17
1,Montañoso,Normal,Miércoles,Seca y limpia,2018,Trim. 3,agosto,29
1,Montañoso,Seca,Miércoles,Seca y limpia,2018,Trim. 3,septiembre,26
1,Ondulado,Normal,viernes,Seca y limpia,2018,Trim. 3,agosto,24
1,Plano,Normal,Domingo,Seca y limpia,2018,Trim. 3,agosto,19
1,Plano,Normal,Jueves,Seca y limpia,2018,Trim. 3,agosto,2
1,Plano,Seca,Domingo,Seca y limpia,2018,Trim. 3,julio,8
1,Plano,Seca,Jueves,Seca y limpia,2016,Trim. 4,diciembre,29
1,Plano,Seca,Sábado,Seca y limpia,2018,Trim. 2,junio,16
10,Escarpado,Normal,viernes,Seca y limpia,2018,Trim. 3,julio,27
10,Montañoso,Lluvia,Martes,Humeda,2018,Trim. 3,agosto,14
10,Montañoso,Niebla,Domingo,Humeda,2018,Trim. 3,agosto,5
10,Montañoso,Normal,Domingo,Material suelto,2018,Trim. 3,agosto,19
10,Montañoso,Normal,Domingo,Seca y limpia,2018,Trim. 3,julio,8
10,Montañoso,Normal,Jueves,Seca y limpia,2018,Trim. 3,julio,12
10,Montañoso,Normal,Jueves,Seca y limpia,2018,Trim. 3,julio,19
10,Montañoso,Normal,Lunes,Seca y limpia,2018,Trim. 3,julio,9
10,Montañoso,Normal,Lunes,Seca y limpia,2018,Trim. 3,agosto,27
10,Montañoso,Normal,Martes,Seca y limpia,2018,Trim. 3,julio,31
10,Montañoso,Normal,Sábado,Seca y limpia,2018,Trim. 3,agosto,25
10,Montañoso,Seca,Martes,Seca y limpia,2018,Trim. 3,julio,31
10,Ondulado,Lluvia,Martes,Humeda,2018,Trim. 3,julio,17
10,Ondulado,Normal,Domingo,Seca y limpia,2018,Trim. 3,julio,1
10,Ondulado,Normal,Domingo,Seca y limpia,2018,Trim. 3,julio,8
10,Ondulado,Normal,Miércoles,Seca y limpia,2018,Trim. 3,julio,25
10,Ondulado,Normal,Sábado,Seca y limpia,2018,Trim. 3,agosto,25
10,Ondulado,Seca,Lunes,Humeda,2018,Trim. 3,julio,16
10,Ondulado,Seca,Martes,Seca y limpia,2018,Trim. 3,agosto,21
10,Ondulado,Sol,viernes,Seca y limpia,2018,Trim. 3,julio,27
10,Plano,Lluvia,Martes,Humeda,2018,Trim. 3,julio,17
10,Plano,Lluvia,Martes,Humeda,2018,Trim. 3,agosto,14
10,Plano,Normal,Domingo,Seca y limpia,2018,Trim. 3,julio,22
10,Plano,Normal,Domingo,Seca y limpia,2018,Trim. 3,agosto,5
10,Plano,Normal,Jueves,Seca y limpia,2018,Trim. 1,febrero,1
10,Plano,Normal,Jueves,Seca y limpia,2018,Trim. 3,septiembre,6
10,Plano,Normal,Lunes,Seca y limpia,2018,Trim. 1,febrero,12
10,Plano,Normal,Lunes,Seca y limpia,2018,Trim. 1,marzo,12
10,Plano,Normal,Lunes,Seca y limpia,2018,Trim. 1,marzo,19
10,Plano,Normal,Lunes,Seca y limpia,2018,Trim. 2,junio,11
10,Plano,Normal,Lunes,Seca y limpia,2018,Trim. 3,agosto,6
10,Plano,Normal,Martes,Seca y limpia,2018,Trim. 2,junio,19
10,Plano,Normal,Martes,Seca y limpia,2018,Trim. 2,junio,26
10,Plano,Normal,Martes,Seca y limpia,2018,Trim. 3,julio,10
10,Plano,Normal,Martes,Seca y limpia,2018,Trim. 3,julio,24
10,Plano,Normal,Miércoles,Seca y limpia,2018,Trim. 3,agosto,15
10,Plano,Normal,Miércoles,Seca y limpia,2018,Trim. 3,septiembre,19
10,Plano,Normal,Sábado,Seca y limpia,2018,Trim. 1,febrero,10
10,Plano,Normal,Sábado,Seca y limpia,2018,Trim. 2,junio,9
10,Plano,Normal,Sábado,Seca y limpia,2018,Trim. 3,julio,21
10,Plano,Normal,viernes,Seca y limpia,2018,Trim. 2,junio,29
10,Plano,Seca,Domingo,Seca y limpia,2016,Trim. 4,diciembre,25
10,Plano,Seca,viernes,Seca y limpia,2018,Trim. 2,junio,1
10,Plano,Sol,Jueves,Seca y limpia,2018,Trim. 3,julio,19
10,Plano,Sol,Lunes,Seca y limpia,2018,Trim. 3,agosto,6
11,Escarpado,Normal,Domingo,Seca y limpia,2018,Trim. 3,agosto,12
11,Montañoso,Lluvia,Domingo,Humeda,2018,Trim. 3,julio,1
11,Montañoso,Lluvia,Miércoles,Humeda,2018,Trim. 3,agosto,1
11,Montañoso,Lluvia,viernes,Humeda,2018,Trim. 3,septiembre,14
11,Montañoso,Normal,Domingo,Seca y limpia,2018,Trim. 3,julio,15
11,Montañoso,Normal,Domingo,Seca y limpia,2018,Trim. 3,julio,29
11,Montañoso,Normal,Domingo,Seca y limpia,2018,Trim. 3,septiembre,9
11,Montañoso,Normal,Jueves,Seca y limpia,2018,Trim. 3,agosto,2
11,Montañoso,Normal,Lunes,Seca y limpia,2018,Trim. 3,julio,30
11,Montañoso,Normal,Martes,Seca y limpia,2018,Trim. 3,julio,3
11,Montañoso,Normal,Martes,Seca y limpia,2018,Trim. 3,julio,31
11,Montañoso,Normal,Sábado,Seca y limpia,2018,Trim. 3,julio,7
11,Montañoso,Normal,Sábado,Seca y limpia,2018,Trim. 3,julio,14
11,Montañoso,Normal,Sábado,Seca y limpia,2018,Trim. 3,agosto,4
11,Montañoso,Normal,Sábado,Seca y limpia,2018,Trim. 3,septiembre,22
11,Montañoso,Normal,viernes,Seca y limpia,2018,Trim. 3,agosto,10
11,Montañoso,Seca,Jueves,Seca y limpia,2018,Trim. 2,junio,21
11,Montañoso,Seca,Martes,Seca y limpia,2018,Trim. 2,junio,26
11,Montañoso,Sol,Domingo,Seca y limpia,2018,Trim. 3,julio,1
11,Montañoso,Sol,Miércoles,Seca y limpia,2018,Trim. 3,agosto,29
11,Montañoso,Sol,Sábado,Humeda,2018,Trim. 3,julio,28
11,Ondulado,Lluvia,Jueves,Humeda,2018,Trim. 3,agosto,23
11,Ondulado,Normal,Jueves,Seca y limpia,2018,Trim. 3,agosto,16
11,Ondulado,Normal,Martes,Seca y limpia,2018,Trim. 1,febrero,13
11,Ondulado,Normal,Sábado,Seca y limpia,2018,Trim. 2,junio,30
11,Ondulado,Seca,Domingo,Seca y limpia,2018,Trim. 3,agosto,19
11,Ondulado,Sol,Jueves,Seca y limpia,2018,Trim. 3,julio,19
11,Plano,Normal,Domingo,Seca y limpia,2018,Trim. 2,junio,3
11,Plano,Normal,Domingo,Seca y limpia,2018,Trim. 3,julio,29
11,Plano,Normal,Domingo,Seca y limpia,2018,Trim. 3,agosto,12
11,Plano,Normal,Jueves,Seca y limpia,2018,Trim. 1,febrero,1
11,Plano,Normal,Jueves,Seca y limpia,2018,Trim. 3,agosto,2
11,Plano,Normal,Jueves,Seca y limpia,2018,Trim. 3,agosto,9
11,Plano,Normal,Lunes,Seca y limpia,2018,Trim. 2,junio,11
11,Plano,Normal,Lunes,Seca y limpia,2018,Trim. 3,julio,9
11,Plano,Normal,Miércoles,Seca y limpia,2018,Trim. 3,julio,18
11,Plano,Normal,Sábado,Seca y limpia,2018,Trim. 2,junio,30
11,Plano,Normal,viernes,Seca y limpia,2018,Trim. 1,febrero,9
11,Plano,Normal,viernes,Seca y limpia,2018,Trim. 1,marzo,9
11,Plano,Seca,Jueves,Seca y limpia,2018,Trim. 2,junio,21
11,Plano,Seca,Martes,Seca y limpia,2018,Trim. 3,agosto,21
11,Plano,Sol,Jueves,Seca y limpia,2018,Trim. 3,septiembre,6
11,Plano,Sol,Lunes,Seca y limpia,2018,Trim. 3,julio,23
12,Escarpado,Normal,viernes,Humeda,2018,Trim. 3,julio,27
12,Montañoso,Lluvia,Lunes,Humeda,2018,Trim. 3,julio,2
12,Montañoso,Lluvia,Martes,Humeda,2018,Trim. 3,agosto,21
12,Montañoso,Normal,Domingo,Seca y limpia,2018,Trim. 3,julio,1
12,Montañoso,Normal,Domingo,Seca y limpia,2018,Trim. 3,septiembre,16
12,Montañoso,Normal,Jueves,Seca y limpia,2018,Trim. 3,julio,26
12,Montañoso,Normal,Lunes,Seca y limpia,2018,Trim. 1,febrero,26
12,Montañoso,Normal,Miércoles,Humeda,2018,Trim. 3,agosto,29
12,Montañoso,Normal,Miércoles,Seca y limpia,2018,Trim. 3,agosto,29
12,Montañoso,Normal,Sábado,Seca y limpia,2018,Trim. 3,agosto,11
12,Montañoso,Normal,viernes,Seca y limpia,2018,Trim. 3,agosto,24
12,Montañoso,Normal,viernes,Seca y limpia,2018,Trim. 3,septiembre,14
12,Montañoso,Seca,Jueves,Seca y limpia,2018,Trim. 2,junio,21
12,Montañoso,Seca,Jueves,Seca y limpia,2018,Trim. 3,agosto,16
12,Montañoso,Seca,Martes,Seca y limpia,2018,Trim. 2,junio,5
12,Montañoso,Seca,Sábado,Seca y limpia,2018,Trim. 2,junio,23
12,Montañoso,Sol,Domingo,Seca y limpia,2018,Trim. 3,agosto,19
12,Montañoso,Sol,Martes,Seca y limpia,2018,Trim. 3,septiembre,25
12,Ondulado,Lluvia,Martes,Humeda,2018,Trim. 3,agosto,14
12,Ondulado,Lluvia,viernes,Humeda,2018,Trim. 3,julio,27
12,Ondulado,Normal,Domingo,Seca y limpia,2018,Trim. 3,agosto,5
12,Ondulado,Normal,Jueves,Seca y limpia,2018,Trim. 3,agosto,2
12,Ondulado,Normal,Jueves,Seca y limpia,2018,Trim. 3,agosto,30
12,Ondulado,Normal,Sábado,Seca y limpia,2018,Trim. 3,julio,7
12,Ondulado,Seca,viernes,Seca y limpia,2018,Trim. 2,junio,29
12,Ondulado,Sol,viernes,Seca y limpia,2018,Trim. 3,agosto,24
12,Plano,Lluvia,Jueves,Humeda,2018,Trim. 3,julio,19
12,Plano,Lluvia,Miércoles,Humeda,2018,Trim. 2,junio,13
12,Plano,Normal,Domingo,Seca y limpia,2018,Trim. 3,julio,22
12,Plano,Normal,Domingo,Seca y limpia,2018,Trim. 3,agosto,26
12,Plano,Normal,Jueves,Material suelto,2018,Trim. 1,marzo,1
12,Plano,Normal,Jueves,Seca y limpia,2018,Trim. 3,agosto,16
12,Plano,Normal,Jueves,Seca y limpia,2018,Trim. 3,agosto,23
12,Plano,Normal,Lunes,Humeda,2018,Trim. 3,julio,9
12,Plano,Normal,Lunes,Seca y limpia,2018,Trim. 3,julio,2
12,Plano,Normal,Martes,Seca y limpia,2018,Trim. 3,agosto,7
12,Plano,Normal,Miércoles,Seca y limpia,2018,Trim. 3,julio,11
12,Plano,Normal,Miércoles,Seca y limpia,2018,Trim. 3,septiembre,12
12,Plano,Normal,Sábado,Seca y limpia,2018,Trim. 1,febrero,17
12,Plano,Normal,Sábado,Seca y limpia,2018,Trim. 3,julio,28
12,Plano,Normal,Sábado,Seca y limpia,2018,Trim. 3,agosto,18
12,Plano,Normal,viernes,Seca y limpia,2018,Trim. 2,junio,1
12,Plano,Seca,Jueves,Seca y limpia,2018,Trim. 2,junio,21
12,Plano,Seca,Lunes,Seca y limpia,2018,Trim. 3,agosto,6
12,Plano,Seca,Martes,Seca y limpia,2018,Trim. 2,junio,26
12,Plano,Seca,viernes,Seca y limpia,2017,Trim. 1,marzo,31
12,Plano,Seca,viernes,Seca y limpia,2018,Trim. 3,agosto,24
13,Escarpado,Normal,Lunes,Seca y limpia,2018,Trim. 3,julio,9
13,Escarpado,Normal,Lunes,Seca y limpia,2018,Trim. 3,septiembre,3
13,Escarpado,Sol,viernes,Seca y limpia,2018,Trim. 3,agosto,24
13,Montañoso,Lluvia,Martes,Humeda,2018,Trim. 3,agosto,14
13,Montañoso,Lluvia,viernes,Humeda,2018,Trim. 3,agosto,3
13,Montañoso,Normal,Domingo,Seca y limpia,2018,Trim. 3,julio,8
13,Montañoso,Normal,Domingo,Seca y limpia,2018,Trim. 3,agosto,19
13,Montañoso,Normal,Domingo,Seca y limpia,2018,Trim. 3,septiembre,16
13,Montañoso,Normal,Lunes,Seca y limpia,2018,Trim. 3,agosto,13
13,Montañoso,Normal,Martes,Seca y limpia,2018,Trim. 3,julio,3
13,Montañoso,Normal,Martes,Seca y limpia,2018,Trim. 3,julio,31
13,Montañoso,Normal,Martes,Seca y limpia,2018,Trim. 3,septiembre,25
13,Montañoso,Normal,Miércoles,Seca y limpia,2018,Trim. 3,julio,11
13,Montañoso,Normal,Miércoles,Seca y limpia,2018,Trim. 3,agosto,1
13,Montañoso,Normal,Sábado,Seca y limpia,2018,Trim. 3,julio,21
13,Montañoso,Normal,Sábado,Seca y limpia,2018,Trim. 3,julio,28
13,Montañoso,Normal,Sábado,Seca y limpia,2018,Trim. 3,agosto,4
13,Montañoso,Normal,viernes,Seca y limpia,2018,Trim. 3,septiembre,14
13,Montañoso,Normal,viernes,Seca y limpia,2018,Trim. 3,septiembre,21
13,Montañoso,Seca,Domingo,Seca y limpia,2018,Trim. 2,junio,3
13,Montañoso,Sol,Miércoles,Seca y limpia,2018,Trim. 3,agosto,22
13,Ondulado,Lluvia,Lunes,Humeda,2018,Trim. 3,agosto,13
13,Ondulado,Lluvia,Martes,Humeda,2018,Trim. 3,agosto,14
13,Ondulado,Lluvia,viernes,Humeda,2018,Trim. 3,julio,27
13,Ondulado,Niebla,Miércoles,Humeda,2018,Trim. 1,marzo,21
13,Ondulado,Normal,Lunes,Seca y limpia,2018,Trim. 3,agosto,27
13,Ondulado,Normal,Miércoles,Seca y limpia,2018,Trim. 3,julio,11
13,Ondulado,Normal,viernes,Seca y limpia,2018,Trim. 3,agosto,31
13,Ondulado,Normal,viernes,Seca y limpia,2018,Trim. 3,septiembre,7
13,Ondulado,Seca,Domingo,Seca y limpia,2018,Trim. 3,septiembre,2
13,Ondulado,Sol,Lunes,Seca y limpia,2018,Trim. 3,agosto,20
13,Plano,Lluvia,Domingo,Humeda,2018,Trim. 3,agosto,26
13,Plano,Normal,Domingo,Humeda,2018,Trim. 3,septiembre,16
13,Plano,Normal,Domingo,Seca y limpia,2018,Trim. 3,julio,8
13,Plano,Normal,Jueves,Seca y limpia,2018,Trim. 3,julio,26
13,Plano,Normal,Jueves,Seca y limpia,2018,Trim. 3,agosto,2
13,Plano,Normal,Martes,Seca y limpia,2018,Trim. 3,agosto,28
13,Plano,Normal,Miércoles,Seca y limpia,2018,Trim. 3,julio,11
13,Plano,Normal,Miércoles,Seca y limpia,2018,Trim. 3,julio,25
13,Plano,Normal,Miércoles,Seca y limpia,2018,Trim. 3,agosto,15
13,Plano,Normal,Miércoles,Seca y limpia,2018,Trim. 3,agosto,22
13,Plano,Normal,Sábado,Seca y limpia,2017,Trim. 4,octubre,7
13,Plano,Normal,Sábado,Seca y limpia,2018,Trim. 1,marzo,31
13,Plano,Normal,Sábado,Seca y limpia,2018,Trim. 2,mayo,12
13,Plano,Normal,Sábado,Seca y limpia,2018,Trim. 3,julio,7
13,Plano,Normal,Sábado,Seca y limpia,2018,Trim. 3,septiembre,22
13,Plano,Seca,Domingo,Seca y limpia,2018,Trim. 2,junio,3
13,Plano,Seca,Domingo,Seca y limpia,2018,Trim. 3,septiembre,2
13,Plano,Seca,Jueves,Seca y limpia,2018,Trim. 3,agosto,16
13,Plano,Seca,Lunes,Seca y limpia,2017,Trim. 1,marzo,20
13,Plano,Seca,Martes,Seca y limpia,2018,Trim. 3,agosto,21
13,Plano,Seca,viernes,Seca y limpia,2018,Trim. 3,agosto,10
14,Escarpado,Sol,viernes,Seca y limpia,2018,Trim. 3,septiembre,7
14,Montañoso,Lluvia,Martes,Humeda,2018,Trim. 2,mayo,15
14,Montañoso,Lluvia,Miércoles,Humeda,2018,Trim. 3,agosto,29
14,Montañoso,Lluvia,viernes,Humeda,2018,Trim. 3,julio,6
14,Montañoso,Lluvia,viernes,Humeda,2018,Trim. 3,julio,27
14,Montañoso,Normal,Domingo,Seca y limpia,2018,Trim. 3,julio,8
14,Montañoso,Normal,Domingo,Seca y limpia,2018,Trim. 3,julio,22
14,Montañoso,Normal,Domingo,Seca y limpia,2018,Trim. 3,agosto,12
14,Montañoso,Normal,Domingo,Seca y limpia,2018,Trim. 3,agosto,26
14,Montañoso,Normal,Domingo,Seca y limpia,2018,Trim. 3,septiembre,9
14,Montañoso,Normal,Lunes,Otra,2018,Trim. 3,septiembre,24
14,Montañoso,Normal,Lunes,Seca y limpia,2018,Trim. 3,julio,23
14,Montañoso,Normal,Lunes,Seca y limpia,2018,Trim. 3,agosto,13
14,Montañoso,Normal,Lunes,Seca y limpia,2018,Trim. 3,agosto,20
14,Montañoso,Normal,Miércoles,Seca y limpia,2017,Trim. 4,diciembre,20
14,Montañoso,Normal,Miércoles,Seca y limpia,2018,Trim. 2,junio,27
14,Montañoso,Normal,Miércoles,Seca y limpia,2018,Trim. 3,agosto,1
14,Montañoso,Normal,Miércoles,Seca y limpia,2018,Trim. 3,agosto,8
14,Montañoso,Normal,Sábado,Seca y limpia,2018,Trim. 3,agosto,18
14,Montañoso,Normal,Sábado,Seca y limpia,2018,Trim. 3,septiembre,8
14,Montañoso,Normal,viernes,Seca y limpia,2018,Trim. 1,febrero,23
14,Montañoso,Normal,viernes,Seca y limpia,2018,Trim. 3,julio,6
14,Montañoso,Normal,viernes,Seca y limpia,2018,Trim. 3,agosto,3
14,Ondulado,Lluvia,Lunes,Humeda,2018,Trim. 3,julio,30
14,Ondulado,Lluvia,Miércoles,Humeda,2018,Trim. 3,agosto,8
14,Ondulado,Normal,Domingo,Seca y limpia,2018,Trim. 3,julio,22
14,Ondulado,Normal,Sábado,Seca y limpia,2018,Trim. 3,julio,28
14,Ondulado,Normal,Sábado,Seca y limpia,2018,Trim. 3,agosto,11
14,Ondulado,Seca,Miércoles,Seca y limpia,2018,Trim. 3,septiembre,12
14,Ondulado,Seca,Sábado,Seca y limpia,2018,Trim. 3,agosto,18
14,Plano,Lluvia,Lunes,Humeda,2018,Trim. 2,mayo,7
14,Plano,Normal,Domingo,Seca y limpia,2017,Trim. 1,enero,15
14,Plano,Normal,Domingo,Seca y limpia,2018,Trim. 3,julio,1
14,Plano,Normal,Domingo,Seca y limpia,2018,Trim. 3,agosto,26
14,Plano,Normal,Jueves,Seca y limpia,2018,Trim. 1,febrero,1
14,Plano,Normal,Jueves,Seca y limpia,2018,Trim. 3,julio,5
14,Plano,Normal,Jueves,Seca y limpia,2018,Trim. 3,julio,12
14,Plano,Normal,Jueves,Seca y limpia,2018,Trim. 3,agosto,9
14,Plano,Normal,Lunes,Seca y limpia,2017,Trim. 4,octubre,30
14,Plano,Normal,Lunes,Seca y limpia,2018,Trim. 3,julio,16
14,Plano,Normal,Lunes,Seca y limpia,2018,Trim. 3,agosto,20
14,Plano,Normal,Martes,Seca y limpia,2018,Trim. 3,septiembre,11
14,Plano,Normal,Miércoles,Humeda,2018,Trim. 3,julio,4
14,Plano,Normal,Miércoles,Seca y limpia,2018,Trim. 3,julio,4
14,Plano,Normal,Miércoles,Seca y limpia,2018,Trim. 3,julio,11
14,Plano,Normal,Miércoles,Seca y limpia,2018,Trim. 3,agosto,1
14,Plano,Normal,Miércoles,Seca y limpia,2018,Trim. 3,agosto,29
14,Plano,Normal,Sábado,Seca y limpia,2018,Trim. 1,febrero,3
14,Plano,Normal,Sábado,Seca y limpia,2018,Trim. 3,julio,7
14,Plano,Normal,Sábado,Seca y limpia,2018,Trim. 3,julio,14
14,Plano,Normal,Sábado,Seca y limpia,2018,Trim. 3,julio,28
14,Plano,Normal,Sábado,Seca y limpia,2018,Trim. 3,agosto,4
14,Plano,Normal,viernes,Seca y limpia,2018,Trim. 1,febrero,23
14,Plano,Seca,Jueves,Seca y limpia,2018,Trim. 2,junio,28
14,Plano,Sol,Sábado,Seca y limpia,2018,Trim. 3,agosto,4
14,Plano,Sol,viernes,Seca y limpia,2018,Trim. 3,julio,13
15,Escarpado,Lluvia,Martes,Humeda,2018,Trim. 3,agosto,14
15,Montañoso,Lluvia,Domingo,Humeda,2018,Trim. 3,septiembre,2
15,Montañoso,Lluvia,Domingo,Humeda,2018,Trim. 3,septiembre,16
15,Montañoso,Lluvia,Jueves,Humeda,2018,Trim. 3,septiembre,27
15,Montañoso,Lluvia,Lunes,Aceite,2018,Trim. 3,julio,30
15,Montañoso,Lluvia,Sábado,Humeda,2018,Trim. 3,julio,28
15,Montañoso,Normal,Jueves,Seca y limpia,2018,Trim. 2,junio,28
15,Montañoso,Normal,Jueves,Seca y limpia,2018,Trim. 3,agosto,16
15,Montañoso,Normal,Martes,Seca y limpia,2018,Trim. 3,julio,10
15,Montañoso,Normal,Martes,Seca y limpia,2018,Trim. 3,julio,24
15,Montañoso,Normal,Miércoles,Seca y limpia,2018,Trim. 3,septiembre,19
15,Montañoso,Normal,Sábado,Seca y limpia,2018,Trim. 3,agosto,4
15,Montañoso,Normal,Sábado,Seca y limpia,2018,Trim. 3,agosto,18
15,Montañoso,Normal,Sábado,Seca y limpia,2018,Trim. 3,septiembre,8
15,Montañoso,Normal,viernes,Seca y limpia,2018,Trim. 3,julio,13
15,Montañoso,Normal,viernes,Seca y limpia,2018,Trim. 3,julio,27
15,Montañoso,Normal,viernes,Seca y limpia,2018,Trim. 3,agosto,31
15,Montañoso,Seca,Jueves,Seca y limpia,2018,Trim. 2,junio,28
15,Montañoso,Seca,Martes,Seca y limpia,2018,Trim. 2,mayo,22
15,Montañoso,Sol,viernes,Seca y limpia,2018,Trim. 1,marzo,2
15,Ondulado,Normal,Jueves,Seca y limpia,2018,Trim. 2,junio,28
15,Ondulado,Normal,Jueves,Seca y limpia,2018,Trim. 3,julio,26
15,Ondulado,Normal,Martes,Seca y limpia,2018,Trim. 1,febrero,13
15,Ondulado,Normal,Sábado,Seca y limpia,2018,Trim. 3,agosto,11
15,Ondulado,Normal,viernes,Seca y limpia,2018,Trim. 3,julio,27
15,Ondulado,Normal,viernes,Seca y limpia,2018,Trim. 3,agosto,17
15,Ondulado,Seca,Jueves,Seca y limpia,2018,Trim. 3,julio,5
15,Ondulado,Seca,Sábado,Seca y limpia,2018,Trim. 2,junio,9
15,Ondulado,Seca,Sábado,Seca y limpia,2018,Trim. 3,julio,28
15,Ondulado,Seca,viernes,Seca y limpia,2018,Trim. 3,septiembre,21
15,Ondulado,Sol,Martes,Seca y limpia,2018,Trim. 3,septiembre,25
15,Plano,Normal,Domingo,Seca y limpia,2018,Trim. 3,julio,8
15,Plano,Normal,Domingo,Seca y limpia,2018,Trim. 3,julio,22
15,Plano,Normal,Domingo,Seca y limpia,2018,Trim. 3,agosto,19
15,Plano,Normal,Jueves,Seca y limpia,2018,Trim. 2,mayo,24
15,Plano,Normal,Jueves,Seca y limpia,2018,Trim. 3,agosto,23
15,Plano,Normal,Martes,Seca y limpia,2018,Trim. 1,febrero,6
15,Plano,Normal,Martes,Seca y limpia,2018,Trim. 2,junio,12
15,Plano,Normal,Martes,Seca y limpia,2018,Trim. 3,agosto,7
15,Plano,Normal,Martes,Seca y limpia,2018,Trim. 3,agosto,14
15,Plano,Normal,Miércoles,Humeda,2018,Trim. 3,julio,18
15,Plano,Normal,Miércoles,Seca y limpia,2018,Trim. 3,julio,4
15,Plano,Normal,Miércoles,Seca y limpia,2018,Trim. 3,agosto,1
15,Plano,Normal,Sábado,Seca y limpia,2018,Trim. 3,julio,28
15,Plano,Normal,viernes,Seca y limpia,2018,Trim. 3,agosto,10
15,Plano,Normal,viernes,Seca y limpia,2018,Trim. 3,agosto,31
15,Plano,Seca,Domingo,Seca y limpia,2018,Trim. 2,abril,22
15,Plano,Seca,Jueves,Seca y limpia,2018,Trim. 2,junio,21
15,Plano,Seca,Lunes,Seca y limpia,2018,Trim. 3,julio,2
15,Plano,Seca,Martes,Seca y limpia,2018,Trim. 2,mayo,29
15,Plano,Seca,Martes,Seca y limpia,2018,Trim. 3,septiembre,18
15,Plano,Sol,Jueves,Seca y limpia,2018,Trim. 3,julio,5
15,Plano,Sol,Jueves,Seca y limpia,2018,Trim. 3,agosto,23
15,Plano,Sol,Martes,Seca y limpia,2018,Trim. 3,agosto,14
16,Escarpado,Normal,Martes,Seca y limpia,2018,Trim. 3,julio,10
16,Montañoso,Lluvia,Lunes,Humeda,2018,Trim. 3,septiembre,3
16,Montañoso,Normal,Domingo,Seca y limpia,2018,Trim. 3,julio,8
16,Montañoso,Normal,Domingo,Seca y limpia,2018,Trim. 3,julio,15
16,Montañoso,Normal,Domingo,Seca y limpia,2018,Trim. 3,agosto,5
16,Montañoso,Normal,Jueves,Seca y limpia,2018,Trim. 3,agosto,16
16,Montañoso,Normal,Jueves,Seca y limpia,2018,Trim. 3,agosto,23
16,Montañoso,Normal,Jueves,Seca y limpia,2018,Trim. 3,agosto,30
16,Montañoso,Normal,Lunes,Seca y limpia,2018,Trim. 3,julio,16
16,Montañoso,Normal,Lunes,Seca y limpia,2018,Trim. 3,julio,23
16,Montañoso,Normal,Martes,Seca y limpia,2018,Trim. 3,julio,17
16,Montañoso,Normal,Martes,Seca y limpia,2018,Trim. 3,agosto,7
16,Montañoso,Normal,Martes,Seca y limpia,2018,Trim. 3,agosto,14
16,Montañoso,Normal,Martes,Seca y limpia,2018,Trim. 3,agosto,28
16,Montañoso,Normal,Miércoles,Seca y limpia,2018,Trim. 3,julio,11
16,Montañoso,Normal,Miércoles,Seca y limpia,2018,Trim. 3,julio,25
16,Montañoso,Normal,Sábado,Seca y limpia,2018,Trim. 3,agosto,18
16,Montañoso,Normal,Sábado,Seca y limpia,2018,Trim. 3,agosto,25
16,Montañoso,Normal,Sábado,Seca y limpia,2018,Trim. 3,septiembre,1
16,Montañoso,Normal,viernes,Seca y limpia,2018,Trim. 1,febrero,16
16,Montañoso,Normal,viernes,Seca y limpia,2018,Trim. 3,julio,27
16,Montañoso,Normal,viernes,Seca y limpia,2018,Trim. 3,septiembre,21
16,Montañoso,Seca,Martes,Seca y limpia,2018,Trim. 2,junio,5
16,Montañoso,Seca,viernes,Seca y limpia,2018,Trim. 2,junio,1
16,Montañoso,Seca,viernes,Seca y limpia,2018,Trim. 3,julio,27
16,Montañoso,Sol,Domingo,Seca y limpia,2018,Trim. 3,agosto,19
16,Montañoso,Sol,Miércoles,Seca y limpia,2018,Trim. 3,septiembre,12
16,Montañoso,Sol,viernes,Seca y limpia,2018,Trim. 3,septiembre,21
16,Ondulado,Lluvia,Martes,Humeda,2018,Trim. 3,julio,3
16,Ondulado,Lluvia,Miércoles,Humeda,2018,Trim. 3,julio,11
16,Ondulado,Lluvia,Sábado,Humeda,2018,Trim. 3,julio,14
16,Ondulado,Normal,Domingo,Seca y limpia,2018,Trim. 3,julio,1
16,Ondulado,Normal,Domingo,Seca y limpia,2018,Trim. 3,julio,8
16,Ondulado,Normal,Jueves,Seca y limpia,2018,Trim. 3,julio,12
16,Ondulado,Normal,Miércoles,Seca y limpia,2018,Trim. 3,septiembre,5
16,Ondulado,Seca,Domingo,Seca y limpia,2018,Trim. 2,junio,10
16,Ondulado,Seca,Miércoles,Seca y limpia,2018,Trim. 2,junio,13
16,Ondulado,Sol,viernes,Seca y limpia,2018,Trim. 3,julio,6
16,Plano,Niebla,Lunes,Humeda,2018,Trim. 3,agosto,20
16,Plano,Normal,Domingo,Humeda,2017,Trim. 1,marzo,12
16,Plano,Normal,Domingo,Seca y limpia,2018,Trim. 3,julio,15
16,Plano,Normal,Jueves,Seca y limpia,2018,Trim. 3,julio,5
16,Plano,Normal,Jueves,Seca y limpia,2018,Trim. 3,julio,12
16,Plano,Normal,Jueves,Seca y limpia,2018,Trim. 3,agosto,16
16,Plano,Normal,Jueves,Seca y limpia,2018,Trim. 3,septiembre,6
16,Plano,Normal,Lunes,Humeda,2018,Trim. 3,agosto,6
16,Plano,Normal,Lunes,Seca y limpia,2018,Trim. 1,febrero,12
16,Plano,Normal,Lunes,Seca y limpia,2018,Trim. 1,febrero,19
16,Plano,Normal,Lunes,Seca y limpia,2018,Trim. 2,junio,11
16,Plano,Normal,Lunes,Seca y limpia,2018,Trim. 3,agosto,6
16,Plano,Normal,Lunes,Seca y limpia,2018,Trim. 3,agosto,27
16,Plano,Normal,Martes,Seca y limpia,2017,Trim. 4,octubre,17
16,Plano,Normal,Martes,Seca y limpia,2018,Trim. 3,julio,31
16,Plano,Normal,Sábado,Seca y limpia,2018,Trim. 3,agosto,4
16,Plano,Normal,Sábado,Seca y limpia,2018,Trim. 3,agosto,11
16,Plano,Normal,viernes,Humeda,2018,Trim. 2,junio,29
16,Plano,Normal,viernes,Seca y limpia,2018,Trim. 2,junio,22
16,Plano,Normal,viernes,Seca y limpia,2018,Trim. 3,julio,13
16,Plano,Seca,Domingo,Seca y limpia,2018,Trim. 3,julio,1
16,Plano,Seca,Sábado,Seca y limpia,2018,Trim. 3,agosto,4
16,Plano,Sol,Jueves,Seca y limpia,2017,Trim. 1,febrero,2
16,Plano,Sol,Jueves,Seca y limpia,2018,Trim. 3,agosto,23
16,Plano,Sol,Martes,Seca y limpia,2018,Trim. 3,septiembre,25
17,Escarpado,Normal,Domingo,Seca y limpia,2018,Trim. 3,julio,29
17,Escarpado,Sol,Lunes,Seca y limpia,2018,Trim. 3,septiembre,10
17,Escarpado,Sol,Miércoles,Seca y limpia,2018,Trim. 3,agosto,15
17,Montañoso,Lluvia,Miércoles,Humeda,2018,Trim. 3,agosto,1
17,Montañoso,Lluvia,Sábado,Humeda,2018,Trim. 3,agosto,4
17,Montañoso,Niebla,Domingo,Humeda,2018,Trim. 3,julio,8
17,Montañoso,Niebla,Jueves,Seca y limpia,2018,Trim. 3,julio,19
17,Montañoso,Normal,Domingo,Seca y limpia,2018,Trim. 3,julio,29
17,Montañoso,Normal,Domingo,Seca y limpia,2018,Trim. 3,agosto,5
17,Montañoso,Normal,Jueves,Seca y limpia,2018,Trim. 3,julio,12
17,Montañoso,Normal,Martes,Seca y limpia,2018,Trim. 3,julio,3
17,Montañoso,Normal,Martes,Seca y limpia,2018,Trim. 3,julio,17
17,Montañoso,Normal,Miércoles,Seca y limpia,2018,Trim. 3,agosto,8
17,Montañoso,Normal,Sábado,Seca y limpia,2018,Trim. 3,agosto,25
17,Montañoso,Normal,viernes,Seca y limpia,2018,Trim. 3,julio,20
17,Montañoso,Normal,viernes,Seca y limpia,2018,Trim. 3,septiembre,28
17,Montañoso,Seca,Martes,Seca y limpia,2018,Trim. 3,septiembre,18
17,Montañoso,Sol,Lunes,Seca y limpia,2018,Trim. 3,agosto,6
17,Montañoso,Sol,Sábado,Seca y limpia,2018,Trim. 3,septiembre,1
17,Montañoso,Sol,Sábado,Seca y limpia,2018,Trim. 3,septiembre,22
17,Montañoso,Sol,viernes,Seca y limpia,2018,Trim. 3,agosto,17
17,Ondulado,Lluvia,Sábado,Humeda,2017,Trim. 1,marzo,18
17,Ondulado,Normal,Jueves,Seca y limpia,2018,Trim. 3,agosto,23
17,Ondulado,Normal,Lunes,Seca y limpia,2018,Trim. 3,julio,9
17,Ondulado,Normal,Lunes,Seca y limpia,2018,Trim. 3,julio,30
17,Ondulado,Normal,Sábado,Seca y limpia,2018,Trim. 3,julio,21
17,Ondulado,Normal,viernes,Seca y limpia,2018,Trim. 3,julio,6
17,Ondulado,Sol,Domingo,Seca y limpia,2018,Trim. 3,agosto,19
17,Ondulado,Viento,Martes,Seca y limpia,2018,Trim. 3,agosto,7
17,Plano,Lluvia,Martes,Humeda,2018,Trim. 3,julio,31
17,Plano,Normal,Domingo,Seca y limpia,2018,Trim. 2,mayo,20
17,Plano,Normal,Jueves,Seca y limpia,2018,Trim. 3,julio,19
17,Plano,Normal,Jueves,Seca y limpia,2018,Trim. 3,agosto,2
17,Plano,Normal,Lunes,Seca y limpia,2018,Trim. 3,julio,16
17,Plano,Normal,Martes,Seca y limpia,2018,Trim. 3,julio,17
17,Plano,Normal,Miércoles,Seca y limpia,2018,Trim. 1,febrero,7
17,Plano,Normal,Miércoles,Seca y limpia,2018,Trim. 3,agosto,1
17,Plano,Normal,Sábado,Seca y limpia,2018,Trim. 1,febrero,10
17,Plano,Normal,viernes,Seca y limpia,2018,Trim. 1,marzo,23
17,Plano,Normal,viernes,Seca y limpia,2018,Trim. 3,agosto,24
17,Plano,Seca,Domingo,Seca y limpia,2018,Trim. 2,junio,17
17,Plano,Seca,Miércoles,Seca y limpia,2018,Trim. 3,agosto,8
18,Escarpado,Normal,Martes,Seca y limpia,2018,Trim. 3,julio,10
18,Montañoso,Lluvia,Jueves,Humeda,2018,Trim. 3,septiembre,27
18,Montañoso,Lluvia,Martes,Humeda,2018,Trim. 3,julio,31
18,Montañoso,Lluvia,Martes,Humeda,2018,Trim. 3,agosto,14
18,Montañoso,Normal,Domingo,Seca y limpia,2018,Trim. 3,julio,22
18,Montañoso,Normal,Domingo,Seca y limpia,2018,Trim. 3,septiembre,9
18,Montañoso,Normal,Domingo,Seca y limpia,2018,Trim. 3,septiembre,23
18,Montañoso,Normal,Jueves,Seca y limpia,2018,Trim. 3,julio,5
18,Montañoso,Normal,Jueves,Seca y limpia,2018,Trim. 3,julio,19
18,Montañoso,Normal,Lunes,Seca y limpia,2018,Trim. 3,julio,16
18,Montañoso,Normal,Lunes,Seca y limpia,2018,Trim. 3,agosto,27
18,Montañoso,Normal,Martes,Seca y limpia,2018,Trim. 3,septiembre,25
18,Montañoso,Normal,Miércoles,Seca y limpia,2018,Trim. 3,julio,11
18,Montañoso,Normal,Miércoles,Seca y limpia,2018,Trim. 3,agosto,8
18,Montañoso,Normal,Miércoles,Seca y limpia,2018,Trim. 3,septiembre,5
18,Montañoso,Normal,Sábado,Seca y limpia,2018,Trim. 2,mayo,12
18,Montañoso,Normal,Sábado,Seca y limpia,2018,Trim. 2,mayo,19
18,Montañoso,Normal,Sábado,Seca y limpia,2018,Trim. 3,agosto,11
18,Montañoso,Normal,viernes,Seca y limpia,2018,Trim. 3,septiembre,21
18,Montañoso,Normal,viernes,Seca y limpia,2018,Trim. 3,septiembre,28
18,Ondulado,Lluvia,Domingo,Humeda,2018,Trim. 3,julio,8
18,Ondulado,Lluvia,Lunes,Humeda,2018,Trim. 3,julio,23
18,Ondulado,Lluvia,viernes,Humeda,2018,Trim. 3,julio,27
18,Ondulado,Normal,Domingo,Seca y limpia,2018,Trim. 3,agosto,19
18,Ondulado,Normal,Miércoles,Seca y limpia,2018,Trim. 3,agosto,22
18,Ondulado,Normal,Sábado,Seca y limpia,2018,Trim. 3,agosto,25
18,Ondulado,Normal,viernes,Seca y limpia,2018,Trim. 3,julio,6
18,Ondulado,Seca,Lunes,Seca y limpia,2018,Trim. 3,julio,9
18,Plano,Lluvia,Sábado,Humeda,2018,Trim. 3,julio,7
18,Plano,Lluvia,viernes,Humeda,2018,Trim. 3,agosto,3
18,Plano,Normal,Domingo,Seca y limpia,2018,Trim. 1,febrero,18
18,Plano,Normal,Domingo,Seca y limpia,2018,Trim. 3,julio,8
18,Plano,Normal,Jueves,Seca y limpia,2017,Trim. 1,febrero,2
18,Plano,Normal,Jueves,Seca y limpia,2017,Trim. 4,octubre,5
18,Plano,Normal,Jueves,Seca y limpia,2018,Trim. 3,julio,26
18,Plano,Normal,Lunes,Seca y limpia,2018,Trim. 1,marzo,12
18,Plano,Normal,Lunes,Seca y limpia,2018,Trim. 3,julio,23
18,Plano,Normal,Lunes,Seca y limpia,2018,Trim. 3,agosto,6
18,Plano,Normal,Lunes,Seca y limpia,2018,Trim. 3,agosto,27
18,Plano,Normal,Martes,Seca y limpia,2018,Trim. 3,julio,3
18,Plano,Normal,Martes,Seca y limpia,2018,Trim. 3,julio,31
18,Plano,Normal,Martes,Seca y limpia,2018,Trim. 3,agosto,14
18,Plano,Normal,Martes,Seca y limpia,2018,Trim. 3,agosto,21
18,Plano,Normal,Miércoles,Seca y limpia,2018,Trim. 1,febrero,7
18,Plano,Normal,Miércoles,Seca y limpia,2018,Trim. 2,junio,13
18,Plano,Normal,Miércoles,Seca y limpia,2018,Trim. 3,julio,4
18,Plano,Normal,Sábado,Seca y limpia,2018,Trim. 1,febrero,10
18,Plano,Normal,viernes,Seca y limpia,2018,Trim. 3,agosto,10
18,Plano,Seca,Domingo,Seca y limpia,2018,Trim. 3,agosto,5
18,Plano,Seca,Jueves,Seca y limpia,2018,Trim. 2,junio,14
18,Plano,Seca,Jueves,Seca y limpia,2018,Trim. 3,agosto,23
18,Plano,Seca,Lunes,Seca y limpia,2018,Trim. 2,abril,2
18,Plano,Seca,Lunes,Seca y limpia,2018,Trim. 3,septiembre,24
18,Plano,Seca,Miércoles,Seca y limpia,1969,Trim. 4,diciembre,31
18,Plano,Seca,Miércoles,Seca y limpia,2017,Trim. 2,junio,7
18,Plano,Seca,Miércoles,Seca y limpia,2018,Trim. 2,junio,13
18,Plano,Seca,Sábado,Seca y limpia,2016,Trim. 4,diciembre,10
18,Plano,Seca,viernes,Seca y limpia,2018,Trim. 2,junio,15
19,Escarpado,Normal,Jueves,Seca y limpia,2018,Trim. 3,julio,19
19,Montañoso,Lluvia,Domingo,Humeda,2018,Trim. 3,julio,1
19,Montañoso,Lluvia,Martes,Humeda,2018,Trim. 3,julio,17
19,Montañoso,Lluvia,Martes,Humeda,2018,Trim. 3,septiembre,18
19,Montañoso,Lluvia,Sábado,Humeda,2018,Trim. 3,julio,21
19,Montañoso,Normal,Jueves,Seca y limpia,2018,Trim. 3,julio,12
19,Montañoso,Normal,Jueves,Seca y limpia,2018,Trim. 3,julio,26
19,Montañoso,Normal,Lunes,Seca y limpia,2018,Trim. 3,julio,23
19,Montañoso,Normal,Lunes,Seca y limpia,2018,Trim. 3,agosto,27
19,Montañoso,Normal,Martes,Seca y limpia,2018,Trim. 3,julio,24
19,Montañoso,Normal,Sábado,Humeda,2018,Trim. 3,agosto,18
19,Montañoso,Normal,Sábado,Seca y limpia,2018,Trim. 3,septiembre,1
19,Montañoso,Normal,viernes,Seca y limpia,2018,Trim. 1,febrero,2
19,Montañoso,Normal,viernes,Seca y limpia,2018,Trim. 3,julio,20
19,Montañoso,Seca,Miércoles,Seca y limpia,2018,Trim. 2,junio,13
19,Ondulado,Lluvia,Jueves,Humeda,2018,Trim. 3,julio,19
19,Ondulado,Lluvia,Miércoles,Humeda,2018,Trim. 3,julio,25
19,Ondulado,Normal,Domingo,Seca y limpia,2018,Trim. 3,septiembre,16
19,Ondulado,Normal,Domingo,Seca y limpia,2018,Trim. 3,septiembre,23
19,Ondulado,Normal,Lunes,Seca y limpia,2018,Trim. 3,agosto,20
19,Ondulado,Normal,Miércoles,Seca y limpia,2018,Trim. 3,julio,11
19,Ondulado,Normal,Sábado,Seca y limpia,2018,Trim. 3,agosto,4
19,Ondulado,Normal,viernes,Seca y limpia,2018,Trim. 3,agosto,10
19,Ondulado,Seca,Jueves,Seca y limpia,2018,Trim. 2,junio,21
19,Ondulado,Seca,Martes,Seca y limpia,2018,Trim. 3,julio,17
19,Plano,Lluvia,viernes,Lodo,2017,Trim. 4,diciembre,15
19,Plano,Normal,Domingo,Seca y limpia,2018,Trim. 3,julio,15
19,Plano,Normal,Domingo,Seca y limpia,2018,Trim. 3,julio,29
19,Plano,Normal,Domingo,Seca y limpia,2018,Trim. 3,septiembre,16
19,Plano,Normal,Jueves,Seca y limpia,2018,Trim. 3,agosto,2
19,Plano,Normal,Jueves,Seca y limpia,2018,Trim. 3,agosto,9
19,Plano,Normal,Jueves,Seca y limpia,2018,Trim. 3,agosto,23
19,Plano,Normal,Lunes,Seca y limpia,2018,Trim. 2,junio,25
19,Plano,Normal,Lunes,Seca y limpia,2018,Trim. 3,julio,2
19,Plano,Normal,Lunes,Seca y limpia,2018,Trim. 3,julio,9
19,Plano,Normal,Lunes,Seca y limpia,2018,Trim. 3,julio,16
19,Plano,Normal,Lunes,Seca y limpia,2018,Trim. 3,julio,23
19,Plano,Normal,Martes,Seca y limpia,2018,Trim. 3,julio,10
19,Plano,Normal,Martes,Seca y limpia,2018,Trim. 3,julio,24
19,Plano,Normal,Martes,Seca y limpia,2018,Trim. 3,agosto,21
19,Plano,Normal,Miércoles,Seca y limpia,2018,Trim. 3,julio,4
19,Plano,Normal,Miércoles,Seca y limpia,2018,Trim. 3,agosto,8
19,Plano,Normal,Sábado,Seca y limpia,2018,Trim. 3,julio,7
19,Plano,Normal,Sábado,Seca y limpia,2018,Trim. 3,julio,21
19,Plano,Normal,viernes,Seca y limpia,2018,Trim. 2,junio,15
19,Plano,Normal,viernes,Seca y limpia,2018,Trim. 2,junio,29
19,Plano,Normal,viernes,Seca y limpia,2018,Trim. 3,julio,6
19,Plano,Normal,viernes,Seca y limpia,2018,Trim. 3,julio,20
19,Plano,Normal,viernes,Seca y limpia,2018,Trim. 3,agosto,3
19,Plano,Normal,viernes,Seca y limpia,2018,Trim. 3,agosto,10
19,Plano,Normal,viernes,Seca y limpia,2018,Trim. 3,agosto,17
19,Plano,Seca,Domingo,Seca y limpia,2017,Trim. 4,octubre,29
19,Plano,Seca,Jueves,Seca y limpia,2017,Trim. 1,marzo,30
19,Plano,Seca,Lunes,Seca y limpia,2018,Trim. 3,agosto,27
19,Plano,Seca,Miércoles,Seca y limpia,2018,Trim. 3,agosto,8
19,Plano,Seca,Sábado,Seca y limpia,2016,Trim. 4,diciembre,31
19,Plano,Seca,Sábado,Seca y limpia,2018,Trim. 2,junio,9
19,Plano,Seca,Sábado,Seca y limpia,2018,Trim. 3,agosto,18
19,Plano,Seca,viernes,Seca y limpia,2017,Trim. 4,diciembre,1
2,Escarpado,Normal,Domingo,Humeda,2018,Trim. 3,julio,15
2,Montañoso,Lluvia,viernes,Humeda,2018,Trim. 3,agosto,3
2,Montañoso,Normal,Domingo,Seca y limpia,2018,Trim. 3,septiembre,23
2,Montañoso,Normal,Miércoles,Seca y limpia,2018,Trim. 3,agosto,8
2,Ondulado,Normal,Domingo,Seca y limpia,2018,Trim. 3,julio,29
2,Ondulado,Normal,Lunes,Seca y limpia,2018,Trim. 2,abril,9
2,Plano,Lluvia,viernes,Humeda,2018,Trim. 2,junio,29
2,Plano,Normal,Domingo,Seca y limpia,2018,Trim. 3,julio,29
2,Plano,Normal,Domingo,Seca y limpia,2018,Trim. 3,septiembre,9
2,Plano,Normal,Lunes,Seca y limpia,2018,Trim. 1,febrero,12
2,Plano,Normal,Lunes,Seca y limpia,2018,Trim. 3,julio,2
2,Plano,Normal,Lunes,Seca y limpia,2018,Trim. 3,agosto,6
2,Plano,Normal,Martes,Seca y limpia,2018,Trim. 2,junio,19
2,Plano,Normal,Miércoles,Seca y limpia,2018,Trim. 3,julio,11
2,Plano,Normal,Sábado,Seca y limpia,2018,Trim. 3,julio,7
2,Plano,Seca,Sábado,Seca y limpia,2018,Trim. 3,julio,21
2,Plano,Seca,Sábado,Seca y limpia,2018,Trim. 3,julio,28
20,Montañoso,Lluvia,Lunes,Humeda,2018,Trim. 3,julio,2
20,Montañoso,Lluvia,Lunes,Humeda,2018,Trim. 3,julio,30
20,Montañoso,Lluvia,Martes,Humeda,2018,Trim. 3,julio,10
20,Montañoso,Lluvia,Sábado,Humeda,2018,Trim. 3,julio,28
20,Montañoso,Niebla,viernes,Humeda,2018,Trim. 3,agosto,3
20,Montañoso,Normal,Domingo,Seca y limpia,2018,Trim. 3,septiembre,2
20,Montañoso,Normal,Lunes,Seca y limpia,2018,Trim. 3,julio,2
20,Montañoso,Normal,Lunes,Seca y limpia,2018,Trim. 3,septiembre,17
20,Montañoso,Normal,Martes,Seca y limpia,2018,Trim. 3,julio,3
20,Montañoso,Normal,Martes,Seca y limpia,2018,Trim. 3,agosto,7
20,Montañoso,Normal,Miércoles,Seca y limpia,2018,Trim. 3,agosto,8
20,Montañoso,Normal,Sábado,Seca y limpia,2018,Trim. 3,agosto,25
20,Montañoso,Normal,viernes,Seca y limpia,2018,Trim. 3,septiembre,28
20,Montañoso,Seca,Sábado,Seca y limpia,2018,Trim. 2,junio,9
20,Montañoso,Seca,viernes,Seca y limpia,2018,Trim. 2,junio,22
20,Montañoso,Viento,Sábado,Seca y limpia,2018,Trim. 3,agosto,4
20,Ondulado,Lluvia,Miércoles,Humeda,2018,Trim. 3,julio,18
20,Ondulado,Normal,Domingo,Seca y limpia,2018,Trim. 3,julio,22
20,Ondulado,Normal,Lunes,Seca y limpia,2018,Trim. 3,julio,9
20,Ondulado,Normal,Martes,Seca y limpia,2018,Trim. 1,febrero,13
20,Ondulado,Normal,Martes,Seca y limpia,2018,Trim. 3,julio,3
20,Ondulado,Normal,Sábado,Seca y limpia,2018,Trim. 3,julio,28
20,Plano,Normal,Domingo,Seca y limpia,2018,Trim. 3,julio,15
20,Plano,Normal,Domingo,Seca y limpia,2018,Trim. 3,agosto,12
20,Plano,Normal,Jueves,Seca y limpia,2018,Trim. 3,agosto,9
20,Plano,Normal,Lunes,Seca y limpia,2018,Trim. 3,agosto,6
20,Plano,Normal,Lunes,Seca y limpia,2018,Trim. 3,agosto,27
20,Plano,Normal,Martes,Seca y limpia,2018,Trim. 2,junio,26
20,Plano,Normal,Martes,Seca y limpia,2018,Trim. 3,julio,24
20,Plano,Normal,Miércoles,Seca y limpia,2017,Trim. 4,octubre,18
20,Plano,Normal,Miércoles,Seca y limpia,2018,Trim. 3,agosto,15
20,Plano,Normal,Miércoles,Seca y limpia,2018,Trim. 3,agosto,22
20,Plano,Normal,Sábado,Seca y limpia,2017,Trim. 4,octubre,7
20,Plano,Normal,Sábado,Seca y limpia,2018,Trim. 1,marzo,17
20,Plano,Normal,Sábado,Seca y limpia,2018,Trim. 3,julio,21
20,Plano,Normal,viernes,Seca y limpia,2018,Trim. 3,agosto,3
20,Plano,Normal,viernes,Seca y limpia,2018,Trim. 3,agosto,24
20,Plano,Seca,Domingo,Humeda,2018,Trim. 3,septiembre,16
20,Plano,Seca,Domingo,Seca y limpia,2017,Trim. 1,marzo,26
20,Plano,Seca,Jueves,Seca y limpia,2017,Trim. 1,marzo,9
20,Plano,Seca,Lunes,Seca y limpia,2018,Trim. 3,julio,9
20,Plano,Seca,Martes,Seca y limpia,2018,Trim. 3,septiembre,11
20,Plano,Seca,viernes,Seca y limpia,2018,Trim. 3,agosto,10
20,Plano,Seca,viernes,Seca y limpia,2018,Trim. 3,agosto,17
21,Montañoso,Lluvia,Sábado,Humeda,2018,Trim. 3,julio,21
21,Montañoso,Niebla,Jueves,Humeda,2018,Trim. 3,agosto,2
21,Montañoso,Niebla,Sábado,Seca y limpia,2018,Trim. 3,agosto,4
21,Montañoso,Normal,Domingo,Seca y limpia,2018,Trim. 3,julio,8
21,Montañoso,Normal,Domingo,Seca y limpia,2018,Trim. 3,julio,29
21,Montañoso,Normal,Jueves,Seca y limpia,2018,Trim. 3,agosto,23
21,Montañoso,Normal,Jueves,Seca y limpia,2018,Trim. 3,septiembre,20
21,Montañoso,Normal,Martes,Seca y limpia,2018,Trim. 3,agosto,14
21,Montañoso,Normal,Miércoles,Seca y limpia,2018,Trim. 3,julio,18
21,Montañoso,Normal,viernes,Seca y limpia,2018,Trim. 3,julio,6
21,Montañoso,Normal,viernes,Seca y limpia,2018,Trim. 3,julio,13
21,Montañoso,Normal,viernes,Seca y limpia,2018,Trim. 3,agosto,24
21,Montañoso,Normal,viernes,Seca y limpia,2018,Trim. 3,septiembre,7
21,Ondulado,Lluvia,Domingo,Humeda,2018,Trim. 3,julio,22
21,Plano,Lluvia,Domingo,Humeda,2018,Trim. 3,julio,1
21,Plano,Lluvia,Sábado,Humeda,2018,Trim. 3,agosto,4
21,Plano,Normal,Domingo,Seca y limpia,2018,Trim. 3,agosto,26
21,Plano,Normal,Jueves,Seca y limpia,2018,Trim. 2,junio,14
21,Plano,Normal,Jueves,Seca y limpia,2018,Trim. 3,agosto,16
21,Plano,Normal,Lunes,Seca y limpia,2018,Trim. 2,mayo,14
21,Plano,Normal,Lunes,Seca y limpia,2018,Trim. 3,agosto,6
21,Plano,Normal,Martes,Seca y limpia,2018,Trim. 2,junio,26
21,Plano,Normal,Martes,Seca y limpia,2018,Trim. 3,julio,3
21,Plano,Normal,Martes,Seca y limpia,2018,Trim. 3,agosto,7
21,Plano,Normal,Sábado,Seca y limpia,2018,Trim. 3,julio,7
21,Plano,Seca,Martes,Seca y limpia,2018,Trim. 2,junio,26
21,Plano,Seca,Martes,Seca y limpia,2018,Trim. 3,agosto,21
21,Plano,Seca,Sábado,Seca y limpia,2018,Trim. 3,septiembre,8
22,Montañoso,Lluvia,Domingo,Humeda,2018,Trim. 3,septiembre,2
22,Montañoso,Lluvia,Jueves,Humeda,2018,Trim. 3,julio,5
22,Montañoso,Lluvia,Jueves,Humeda,2018,Trim. 3,septiembre,6
22,Montañoso,Lluvia,viernes,Humeda,2018,Trim. 3,septiembre,14
22,Montañoso,Normal,Martes,Seca y limpia,2018,Trim. 3,septiembre,11
22,Montañoso,Normal,Sábado,Seca y limpia,2018,Trim. 3,agosto,18
22,Montañoso,Normal,Sábado,Seca y limpia,2018,Trim. 3,septiembre,1
22,Montañoso,Normal,viernes,Humeda,2018,Trim. 3,agosto,3
22,Montañoso,Normal,viernes,Seca y limpia,2018,Trim. 3,agosto,17
22,Ondulado,Lluvia,Jueves,Humeda,2018,Trim. 3,agosto,2
22,Plano,Normal,Miércoles,Seca y limpia,2018,Trim. 3,julio,18
22,Plano,Normal,Sábado,Seca y limpia,2018,Trim. 3,julio,28
22,Plano,Normal,Sábado,Seca y limpia,2018,Trim. 3,agosto,11
22,Plano,Normal,Sábado,Seca y limpia,2018,Trim. 3,agosto,18
22,Plano,Normal,viernes,Seca y limpia,2018,Trim. 3,julio,6
22,Plano,Seca,Domingo,Seca y limpia,2018,Trim. 3,agosto,19
23,Escarpado,Normal,Sábado,Seca y limpia,2018,Trim. 3,agosto,4
23,Montañoso,Lluvia,Sábado,Humeda,2018,Trim. 3,julio,28
23,Montañoso,Normal,Domingo,Seca y limpia,2018,Trim. 3,septiembre,23
23,Montañoso,Normal,Martes,Seca y limpia,2018,Trim. 3,julio,10
23,Montañoso,Normal,Sábado,Seca y limpia,2018,Trim. 3,agosto,4
23,Montañoso,Normal,Sábado,Seca y limpia,2018,Trim. 3,agosto,11
23,Montañoso,Seca,Jueves,Seca y limpia,2018,Trim. 3,agosto,2
23,Ondulado,Normal,Lunes,Seca y limpia,2018,Trim. 3,agosto,6
23,Ondulado,Normal,Martes,Seca y limpia,2018,Trim. 3,agosto,14
23,Ondulado,Seca,Sábado,Seca y limpia,2018,Trim. 3,agosto,25
23,Plano,Lluvia,Domingo,Humeda,2018,Trim. 3,julio,22
23,Plano,Lluvia,Sábado,Humeda,2018,Trim. 2,junio,30
23,Plano,Normal,Domingo,Seca y limpia,2018,Trim. 3,julio,15
23,Plano,Normal,Domingo,Seca y limpia,2018,Trim. 3,julio,29
23,Plano,Normal,Jueves,Seca y limpia,2018,Trim. 2,junio,28
23,Plano,Normal,Miércoles,Seca y limpia,2018,Trim. 3,agosto,8
23,Plano,Normal,Sábado,Humeda,2018,Trim. 3,septiembre,8
23,Plano,Normal,Sábado,Seca y limpia,2018,Trim. 3,agosto,4
23,Plano,Seca,Domingo,Seca y limpia,2018,Trim. 3,septiembre,16
23,Plano,Seca,Jueves,Seca y limpia,2017,Trim. 2,junio,22
23,Plano,Seca,Martes,Seca y limpia,2018,Trim. 3,agosto,7
23,Plano,Seca,Miércoles,Seca y limpia,2018,Trim. 2,junio,27
23,Plano,Seca,Sábado,Seca y limpia,2016,Trim. 4,diciembre,31
23,Plano,Seca,Sábado,Seca y limpia,2018,Trim. 2,junio,30
23,Plano,Seca,viernes,Seca y limpia,2018,Trim. 2,junio,22
3,Montañoso,Lluvia,Domingo,Seca y limpia,2018,Trim. 3,agosto,5
3,Montañoso,Normal,Domingo,Humeda,2018,Trim. 3,julio,22
3,Montañoso,Normal,Domingo,Seca y limpia,2018,Trim. 3,agosto,19
3,Montañoso,Normal,Jueves,Seca y limpia,2018,Trim. 3,agosto,23
3,Montañoso,Normal,Lunes,Seca y limpia,2018,Trim. 3,septiembre,3
3,Montañoso,Normal,Miércoles,Seca y limpia,2018,Trim. 3,julio,4
3,Plano,Normal,Domingo,Seca y limpia,2018,Trim. 1,marzo,18
3,Plano,Normal,Domingo,Seca y limpia,2018,Trim. 3,julio,29
3,Plano,Normal,Domingo,Seca y limpia,2018,Trim. 3,agosto,5
3,Plano,Normal,Lunes,Seca y limpia,2018,Trim. 3,julio,23
3,Plano,Normal,Martes,Seca y limpia,2018,Trim. 3,agosto,7
3,Plano,Normal,Miércoles,Seca y limpia,2018,Trim. 3,agosto,29
4,Escarpado,Normal,Martes,Seca y limpia,2018,Trim. 3,septiembre,11
4,Montañoso,Lluvia,Domingo,Humeda,2018,Trim. 3,agosto,5
4,Montañoso,Normal,Domingo,Humeda,2018,Trim. 3,agosto,5
4,Montañoso,Normal,Domingo,Seca y limpia,2018,Trim. 3,julio,22
4,Montañoso,Normal,Jueves,Seca y limpia,2018,Trim. 2,junio,28
4,Montañoso,Normal,Jueves,Seca y limpia,2018,Trim. 3,julio,26
4,Montañoso,Normal,Lunes,Seca y limpia,2018,Trim. 3,julio,30
4,Montañoso,Normal,Lunes,Seca y limpia,2018,Trim. 3,agosto,20
4,Montañoso,Normal,Lunes,Seca y limpia,2018,Trim. 3,septiembre,17
4,Montañoso,Normal,Miércoles,Seca y limpia,1969,Trim. 4,diciembre,31
4,Montañoso,Seca,Domingo,Seca y limpia,2018,Trim. 2,junio,10
4,Montañoso,Seca,Domingo,Seca y limpia,2018,Trim. 3,julio,22
4,Montañoso,Seca,Jueves,Seca y limpia,2018,Trim. 3,agosto,30
4,Montañoso,Seca,viernes,Seca y limpia,2018,Trim. 3,julio,6
4,Ondulado,Lluvia,Sábado,Humeda,2018,Trim. 3,julio,14
4,Plano,Lluvia,Lunes,Humeda,2018,Trim. 3,julio,30
4,Plano,Normal,Domingo,Seca y limpia,2018,Trim. 2,mayo,13
4,Plano,Normal,Jueves,Seca y limpia,2018,Trim. 3,agosto,30
4,Plano,Normal,Miércoles,Seca y limpia,2018,Trim. 1,marzo,7
4,Plano,Normal,Miércoles,Seca y limpia,2018,Trim. 3,agosto,22
5,Escarpado,Normal,Miércoles,Seca y limpia,2018,Trim. 3,julio,4
5,Montañoso,Niebla,Lunes,Seca y limpia,2018,Trim. 3,agosto,6
5,Montañoso,Normal,Jueves,Seca y limpia,2018,Trim. 3,agosto,23
5,Montañoso,Normal,Lunes,Seca y limpia,2018,Trim. 3,agosto,27
5,Montañoso,Normal,Martes,Seca y limpia,2018,Trim. 3,julio,3
5,Montañoso,Normal,Sábado,Seca y limpia,2018,Trim. 3,agosto,18
5,Montañoso,Normal,Sábado,Seca y limpia,2018,Trim. 3,septiembre,1
5,Montañoso,Normal,viernes,Seca y limpia,2018,Trim. 3,septiembre,28
5,Ondulado,Normal,Domingo,Humeda,2018,Trim. 3,julio,15
5,Ondulado,Normal,Domingo,Seca y limpia,2018,Trim. 1,febrero,4
5,Ondulado,Normal,Jueves,Seca y limpia,2018,Trim. 3,agosto,30
5,Ondulado,Normal,Miércoles,Seca y limpia,2018,Trim. 3,julio,25
5,Ondulado,Normal,Sábado,Seca y limpia,2018,Trim. 3,agosto,25
5,Ondulado,Normal,viernes,Seca y limpia,2018,Trim. 3,agosto,31
5,Ondulado,Seca,Lunes,Seca y limpia,2018,Trim. 3,agosto,13
5,Plano,Lluvia,Jueves,Humeda,2018,Trim. 3,agosto,9
5,Plano,Normal,Domingo,Seca y limpia,2018,Trim. 3,agosto,12
5,Plano,Normal,Jueves,Seca y limpia,2018,Trim. 3,julio,5
5,Plano,Normal,Lunes,Seca y limpia,2017,Trim. 4,octubre,9
5,Plano,Normal,Lunes,Seca y limpia,2018,Trim. 3,agosto,13
5,Plano,Normal,Martes,Seca y limpia,2018,Trim. 2,mayo,29
5,Plano,Normal,Martes,Seca y limpia,2018,Trim. 2,junio,19
5,Plano,Normal,Miércoles,Seca y limpia,2018,Trim. 1,marzo,14
5,Plano,Normal,Miércoles,Seca y limpia,2018,Trim. 3,julio,18
5,Plano,Normal,Miércoles,Seca y limpia,2018,Trim. 3,agosto,1
5,Plano,Normal,Sábado,Seca y limpia,2018,Trim. 3,julio,21
5,Plano,Normal,viernes,Seca y limpia,2018,Trim. 1,febrero,23
5,Plano,Normal,viernes,Seca y limpia,2018,Trim. 3,agosto,3
5,Plano,Seca,Jueves,Seca y limpia,2018,Trim. 2,mayo,31
5,Plano,Seca,Jueves,Seca y limpia,2018,Trim. 3,agosto,2
5,Plano,Seca,Jueves,Seca y limpia,2018,Trim. 4,octubre,11
5,Plano,Seca,Miércoles,Seca y limpia,2018,Trim. 3,agosto,1
5,Plano,Sol,Lunes,Seca y limpia,2018,Trim. 3,julio,30
6,Montañoso,Niebla,viernes,Humeda,2018,Trim. 3,agosto,3
6,Montañoso,Normal,Domingo,Humeda,2018,Trim. 3,agosto,5
6,Montañoso,Normal,Jueves,Seca y limpia,2018,Trim. 3,agosto,2
6,Montañoso,Normal,Lunes,Seca y limpia,2018,Trim. 3,julio,2
6,Montañoso,Normal,Martes,Seca y limpia,2018,Trim. 3,julio,31
6,Montañoso,Normal,Miércoles,Seca y limpia,2018,Trim. 3,agosto,1
6,Montañoso,Normal,Sábado,Seca y limpia,2018,Trim. 2,junio,16
6,Montañoso,Normal,Sábado,Seca y limpia,2018,Trim. 3,julio,7
6,Montañoso,Normal,Sábado,Seca y limpia,2018,Trim. 3,julio,28
6,Montañoso,Normal,Sábado,Seca y limpia,2018,Trim. 3,agosto,18
6,Montañoso,Normal,viernes,Seca y limpia,2018,Trim. 3,agosto,24
6,Montañoso,Normal,viernes,Seca y limpia,2018,Trim. 3,septiembre,14
6,Montañoso,Normal,viernes,Seca y limpia,2018,Trim. 3,septiembre,21
6,Montañoso,Sol,viernes,Seca y limpia,2018,Trim. 3,septiembre,7
6,Ondulado,Lluvia,Domingo,Humeda,2018,Trim. 3,agosto,5
6,Ondulado,Lluvia,Lunes,Humeda,2018,Trim. 3,julio,2
6,Ondulado,Lluvia,Lunes,Humeda,2018,Trim. 3,julio,16
6,Ondulado,Lluvia,Sábado,Humeda,2018,Trim. 3,julio,14
6,Ondulado,Normal,Jueves,Seca y limpia,2018,Trim. 3,julio,5
6,Ondulado,Normal,Miércoles,Seca y limpia,2018,Trim. 3,julio,11
6,Ondulado,Normal,Miércoles,Seca y limpia,2018,Trim. 3,julio,18
6,Ondulado,Normal,viernes,Seca y limpia,2018,Trim. 3,julio,13
6,Ondulado,Normal,viernes,Seca y limpia,2018,Trim. 3,julio,20
6,Ondulado,Normal,viernes,Seca y limpia,2018,Trim. 3,agosto,3
6,Ondulado,Sol,Sábado,Seca y limpia,2018,Trim. 3,agosto,25
6,Plano,Lluvia,Martes,Humeda,2018,Trim. 1,marzo,20
6,Plano,Lluvia,Martes,Humeda,2018,Trim. 3,agosto,28
6,Plano,Normal,Domingo,Seca y limpia,2018,Trim. 3,agosto,5
6,Plano,Normal,Domingo,Seca y limpia,2018,Trim. 3,septiembre,2
6,Plano,Normal,Jueves,Seca y limpia,2018,Trim. 2,mayo,3
6,Plano,Normal,Jueves,Seca y limpia,2018,Trim. 2,mayo,24
6,Plano,Normal,Jueves,Seca y limpia,2018,Trim. 3,agosto,9
6,Plano,Normal,Lunes,Humeda,2018,Trim. 1,febrero,19
6,Plano,Normal,Lunes,Seca y limpia,2018,Trim. 3,julio,23
6,Plano,Normal,Lunes,Seca y limpia,2018,Trim. 3,agosto,6
6,Plano,Normal,Lunes,Seca y limpia,2018,Trim. 3,agosto,13
6,Plano,Normal,Martes,Seca y limpia,2018,Trim. 1,febrero,6
6,Plano,Normal,Martes,Seca y limpia,2018,Trim. 1,febrero,27
6,Plano,Normal,Martes,Seca y limpia,2018,Trim. 3,agosto,21
6,Plano,Normal,Miércoles,Seca y limpia,2018,Trim. 2,junio,27
6,Plano,Normal,Miércoles,Seca y limpia,2018,Trim. 3,julio,11
6,Plano,Normal,Sábado,Seca y limpia,2018,Trim. 3,julio,7
6,Plano,Normal,Sábado,Seca y limpia,2018,Trim. 3,julio,14
6,Plano,Normal,Sábado,Seca y limpia,2018,Trim. 3,julio,28
6,Plano,Normal,viernes,Seca y limpia,2018,Trim. 3,julio,27
6,Plano,Normal,viernes,Seca y limpia,2018,Trim. 3,agosto,3
6,Plano,Seca,Jueves,Seca y limpia,2018,Trim. 3,agosto,16
6,Plano,Seca,Martes,Seca y limpia,2018,Trim. 3,agosto,14
6,Plano,Seca,Miércoles,Seca y limpia,2018,Trim. 2,mayo,30
6,Plano,Sol,Miércoles,Seca y limpia,2018,Trim. 3,julio,4
7,Escarpado,Lluvia,Martes,Humeda,2018,Trim. 3,julio,3
7,Escarpado,Normal,Jueves,Material suelto,2018,Trim. 3,julio,26
7,Escarpado,Normal,Jueves,Seca y limpia,2018,Trim. 3,julio,12
7,Escarpado,Normal,Martes,Seca y limpia,2018,Trim. 3,agosto,21
7,Escarpado,Normal,Sábado,Seca y limpia,2018,Trim. 3,agosto,11
7,Escarpado,Sol,Domingo,Seca y limpia,2018,Trim. 3,agosto,19
7,Escarpado,Sol,Miércoles,Seca y limpia,2018,Trim. 3,agosto,29
7,Montañoso,Lluvia,Jueves,Humeda,2018,Trim. 3,julio,19
7,Montañoso,Lluvia,Lunes,Humeda,2018,Trim. 3,agosto,27
7,Montañoso,Lluvia,Martes,Humeda,2018,Trim. 3,agosto,14
7,Montañoso,Lluvia,Martes,Humeda,2018,Trim. 3,agosto,28
7,Montañoso,Lluvia,Sábado,Humeda,2018,Trim. 3,agosto,18
7,Montañoso,Lluvia,viernes,Humeda,2018,Trim. 3,julio,27
7,Montañoso,Normal,Domingo,Seca y limpia,2018,Trim. 3,julio,8
7,Montañoso,Normal,Domingo,Seca y limpia,2018,Trim. 3,agosto,12
7,Montañoso,Normal,Domingo,Seca y limpia,2018,Trim. 3,agosto,19
7,Montañoso,Normal,Jueves,Seca y limpia,2018,Trim. 3,julio,26
7,Montañoso,Normal,Jueves,Seca y limpia,2018,Trim. 3,agosto,16
7,Montañoso,Normal,Jueves,Seca y limpia,2018,Trim. 3,agosto,30
7,Montañoso,Normal,Jueves,Seca y limpia,2018,Trim. 3,septiembre,13
7,Montañoso,Normal,Lunes,Seca y limpia,2018,Trim. 3,julio,23
7,Montañoso,Normal,Martes,Humeda,2018,Trim. 3,julio,31
7,Montañoso,Normal,Martes,Seca y limpia,2018,Trim. 3,julio,17
7,Montañoso,Normal,Martes,Seca y limpia,2018,Trim. 3,julio,24
7,Montañoso,Normal,Miércoles,Seca y limpia,2018,Trim. 3,agosto,1
7,Montañoso,Normal,Miércoles,Seca y limpia,2018,Trim. 3,agosto,8
7,Montañoso,Normal,Miércoles,Seca y limpia,2018,Trim. 3,agosto,15
7,Montañoso,Normal,Miércoles,Seca y limpia,2018,Trim. 3,agosto,22
7,Montañoso,Normal,Sábado,Seca y limpia,2018,Trim. 3,julio,28
7,Montañoso,Normal,Sábado,Seca y limpia,2018,Trim. 3,agosto,4
7,Montañoso,Normal,viernes,Seca y limpia,2018,Trim. 3,julio,13
7,Montañoso,Normal,viernes,Seca y limpia,2018,Trim. 3,julio,27
7,Montañoso,Normal,viernes,Seca y limpia,2018,Trim. 3,septiembre,21
7,Montañoso,Sol,Lunes,Seca y limpia,2018,Trim. 3,septiembre,3
7,Ondulado,Normal,Lunes,Seca y limpia,2018,Trim. 3,agosto,13
7,Ondulado,Normal,Martes,Seca y limpia,2018,Trim. 3,agosto,28
7,Ondulado,Normal,Sábado,Seca y limpia,2018,Trim. 3,agosto,18
7,Ondulado,Normal,viernes,Seca y limpia,2018,Trim. 3,agosto,10
7,Plano,Lluvia,Jueves,Humeda,2018,Trim. 2,junio,28
7,Plano,Lluvia,Jueves,Humeda,2018,Trim. 3,agosto,9
7,Plano,Lluvia,Lunes,Humeda,2018,Trim. 3,septiembre,3
7,Plano,Lluvia,Martes,Humeda,2018,Trim. 3,julio,3
7,Plano,Lluvia,Miércoles,Humeda,2018,Trim. 3,agosto,15
7,Plano,Niebla,Lunes,Humeda,2018,Trim. 3,agosto,27
7,Plano,Normal,Domingo,Seca y limpia,2018,Trim. 1,febrero,25
7,Plano,Normal,Domingo,Seca y limpia,2018,Trim. 3,agosto,26
7,Plano,Normal,Jueves,Humeda,2018,Trim. 2,junio,28
7,Plano,Normal,Jueves,Seca y limpia,2018,Trim. 3,julio,26
7,Plano,Normal,Jueves,Seca y limpia,2018,Trim. 3,agosto,30
7,Plano,Normal,Lunes,Seca y limpia,2018,Trim. 1,febrero,5
7,Plano,Normal,Lunes,Seca y limpia,2018,Trim. 3,julio,23
7,Plano,Normal,Lunes,Seca y limpia,2018,Trim. 3,agosto,20
7,Plano,Normal,Martes,Material suelto,2018,Trim. 1,marzo,13
7,Plano,Normal,Martes,Seca y limpia,2018,Trim. 1,febrero,20
7,Plano,Normal,Martes,Seca y limpia,2018,Trim. 3,julio,3
7,Plano,Normal,Martes,Seca y limpia,2018,Trim. 3,julio,10
7,Plano,Normal,Martes,Seca y limpia,2018,Trim. 3,julio,24
7,Plano,Normal,Miércoles,Seca y limpia,2018,Trim. 1,febrero,21
7,Plano,Normal,Sábado,Seca y limpia,2018,Trim. 1,febrero,24
7,Plano,Normal,viernes,Seca y limpia,2018,Trim. 3,agosto,24
7,Plano,Seca,Domingo,Seca y limpia,2018,Trim. 2,junio,10
7,Plano,Seca,Miércoles,Seca y limpia,2018,Trim. 2,junio,20
8,Montañoso,Niebla,Sábado,Helada,2018,Trim. 3,agosto,18
8,Montañoso,Normal,Domingo,Seca y limpia,2018,Trim. 3,julio,15
8,Montañoso,Normal,Domingo,Seca y limpia,2018,Trim. 3,agosto,5
8,Montañoso,Normal,Jueves,Seca y limpia,2018,Trim. 3,julio,26
8,Montañoso,Normal,Jueves,Seca y limpia,2018,Trim. 3,agosto,9
8,Montañoso,Normal,Jueves,Seca y limpia,2018,Trim. 3,agosto,16
8,Montañoso,Normal,Jueves,Seca y limpia,2018,Trim. 3,agosto,23
8,Montañoso,Normal,Jueves,Seca y limpia,2018,Trim. 3,agosto,30
8,Montañoso,Normal,Lunes,Seca y limpia,2018,Trim. 3,julio,9
8,Montañoso,Normal,Lunes,Seca y limpia,2018,Trim. 3,agosto,27
8,Montañoso,Normal,Martes,Seca y limpia,2018,Trim. 3,julio,24
8,Montañoso,Normal,Martes,Seca y limpia,2018,Trim. 3,agosto,14
8,Montañoso,Normal,Martes,Seca y limpia,2018,Trim. 3,septiembre,4
8,Montañoso,Normal,Miércoles,Seca y limpia,2018,Trim. 3,agosto,8
8,Montañoso,Normal,Sábado,Seca y limpia,2018,Trim. 3,julio,28
8,Montañoso,Normal,viernes,Seca y limpia,2018,Trim. 3,julio,6
8,Montañoso,Seca,Miércoles,Seca y limpia,2018,Trim. 2,mayo,2
8,Montañoso,Viento,viernes,Seca y limpia,2018,Trim. 3,septiembre,21
8,Ondulado,Lluvia,Miércoles,Humeda,2018,Trim. 3,agosto,15
8,Ondulado,Normal,Jueves,Seca y limpia,2018,Trim. 3,julio,12
8,Ondulado,Normal,Lunes,Seca y limpia,2018,Trim. 3,julio,30
8,Ondulado,Sol,Lunes,Seca y limpia,2018,Trim. 3,julio,30
8,Ondulado,Sol,Sábado,Seca y limpia,2018,Trim. 3,agosto,11
8,Plano,Lluvia,Domingo,Humeda,2018,Trim. 3,agosto,5
8,Plano,Lluvia,Jueves,Humeda,2018,Trim. 3,julio,26
8,Plano,Niebla,Miércoles,Humeda,2018,Trim. 3,septiembre,5
8,Plano,Normal,Domingo,Helada,2018,Trim. 1,febrero,4
8,Plano,Normal,Domingo,Seca y limpia,2018,Trim. 1,febrero,4
8,Plano,Normal,Domingo,Seca y limpia,2018,Trim. 1,marzo,11
8,Plano,Normal,Domingo,Seca y limpia,2018,Trim. 3,agosto,12
8,Plano,Normal,Domingo,Seca y limpia,2018,Trim. 3,agosto,19
8,Plano,Normal,Jueves,Seca y limpia,2018,Trim. 3,julio,5
8,Plano,Normal,Lunes,Seca y limpia,2018,Trim. 3,julio,9
8,Plano,Normal,Lunes,Seca y limpia,2018,Trim. 3,agosto,6
8,Plano,Normal,Martes,Seca y limpia,2018,Trim. 3,agosto,21
8,Plano,Normal,Martes,Seca y limpia,2018,Trim. 3,agosto,28
8,Plano,Normal,Miércoles,Seca y limpia,2018,Trim. 3,julio,18
8,Plano,Normal,Sábado,Seca y limpia,2018,Trim. 3,agosto,25
8,Plano,Normal,viernes,Seca y limpia,2018,Trim. 3,julio,27
8,Plano,Normal,viernes,Seca y limpia,2018,Trim. 3,agosto,10
8,Plano,Sol,Martes,Seca y limpia,2018,Trim. 3,septiembre,11
8,Plano,Sol,viernes,Seca y limpia,2018,Trim. 3,agosto,3
8,Plano,Sol,viernes,Seca y limpia,2018,Trim. 3,septiembre,7
9,Escarpado,Normal,viernes,Seca y limpia,2018,Trim. 3,julio,20
9,Montañoso,Normal,Domingo,Seca y limpia,2018,Trim. 3,julio,1
9,Montañoso,Normal,Domingo,Seca y limpia,2018,Trim. 3,julio,22
9,Montañoso,Normal,Domingo,Seca y limpia,2018,Trim. 3,julio,29
9,Montañoso,Normal,Domingo,Seca y limpia,2018,Trim. 3,septiembre,9
9,Montañoso,Normal,Lunes,Seca y limpia,2018,Trim. 1,enero,1
9,Montañoso,Normal,Lunes,Seca y limpia,2018,Trim. 3,julio,23
9,Montañoso,Normal,Lunes,Seca y limpia,2018,Trim. 3,agosto,13
9,Montañoso,Normal,Miércoles,Seca y limpia,2018,Trim. 3,julio,11
9,Montañoso,Normal,Miércoles,Seca y limpia,2018,Trim. 3,julio,25
9,Montañoso,Normal,Miércoles,Seca y limpia,2018,Trim. 3,agosto,22
9,Montañoso,Normal,viernes,Seca y limpia,2018,Trim. 2,junio,29
9,Montañoso,Normal,viernes,Seca y limpia,2018,Trim. 3,julio,13
9,Montañoso,Normal,viernes,Seca y limpia,2018,Trim. 3,agosto,3
9,Montañoso,Normal,viernes,Seca y limpia,2018,Trim. 3,agosto,10
9,Montañoso,Seca,Domingo,Seca y limpia,2018,Trim. 2,junio,24
9,Ondulado,Lluvia,Miércoles,Humeda,2018,Trim. 3,julio,11
9,Ondulado,Normal,Domingo,Seca y limpia,2018,Trim. 3,agosto,12
9,Ondulado,Normal,Martes,Seca y limpia,2018,Trim. 1,febrero,13
9,Ondulado,Normal,Martes,Seca y limpia,2018,Trim. 3,agosto,14
9,Ondulado,Normal,Sábado,Seca y limpia,2018,Trim. 3,julio,21
9,Ondulado,Normal,Sábado,Seca y limpia,2018,Trim. 3,julio,28
9,Ondulado,Normal,Sábado,Seca y limpia,2018,Trim. 3,agosto,4
9,Ondulado,Normal,viernes,Seca y limpia,2018,Trim. 3,agosto,10
9,Ondulado,Sol,Lunes,Seca y limpia,2018,Trim. 3,julio,9
9,Ondulado,Sol,Sábado,Seca y limpia,2018,Trim. 3,septiembre,1
9,Plano,Lluvia,Jueves,Humeda,2017,Trim. 1,marzo,23
9,Plano,Normal,Jueves,Seca y limpia,2018,Trim. 3,julio,19
9,Plano,Normal,Jueves,Seca y limpia,2018,Trim. 3,julio,26
9,Plano,Normal,Martes,Seca y limpia,2018,Trim. 3,agosto,21
9,Plano,Normal,Miércoles,Seca y limpia,2018,Trim. 1,marzo,28
9,Plano,Normal,Miércoles,Seca y limpia,2018,Trim. 3,agosto,8
9,Plano,Normal,Sábado,Seca y limpia,2018,Trim. 3,julio,14
9,Plano,Normal,Sábado,Seca y limpia,2018,Trim. 3,agosto,18
9,Plano,Normal,viernes,Seca y limpia,2018,Trim. 3,agosto,31
9,Plano,Seca,Lunes,Seca y limpia,2016,Trim. 4,diciembre,12
9,Plano,Seca,Miércoles,Seca y limpia,2018,Trim. 2,mayo,16
9,Plano,Sol,viernes,Seca y limpia,2018,Trim. 3,septiembre,7
